%YAML 1.1
%TAG !u! tag:unity3d.com,2011:
--- !u!1001 &4311782523241026387
PrefabInstance:
  m_ObjectHideFlags: 0
  serializedVersion: 2
  m_Modification:
    m_TransformParent: {fileID: 0}
    m_Modifications:
    - target: {fileID: 6469320617553340425, guid: 5782b1e9e28c8487585b7162112f0fdb, type: 3}
      propertyPath: defaultWeapon
      value: 
      objectReference: {fileID: 11400000, guid: c6ab758e444cc4641b78d7a487dc6869, type: 2}
    - target: {fileID: 8234146862788516067, guid: 5782b1e9e28c8487585b7162112f0fdb, type: 3}
      propertyPath: m_RootOrder
      value: 0
      objectReference: {fileID: 0}
    - target: {fileID: 8234146862788516067, guid: 5782b1e9e28c8487585b7162112f0fdb, type: 3}
      propertyPath: m_LocalPosition.x
      value: 0
      objectReference: {fileID: 0}
    - target: {fileID: 8234146862788516067, guid: 5782b1e9e28c8487585b7162112f0fdb, type: 3}
      propertyPath: m_LocalPosition.y
      value: 0
      objectReference: {fileID: 0}
    - target: {fileID: 8234146862788516067, guid: 5782b1e9e28c8487585b7162112f0fdb, type: 3}
      propertyPath: m_LocalPosition.z
      value: 0
      objectReference: {fileID: 0}
    - target: {fileID: 8234146862788516067, guid: 5782b1e9e28c8487585b7162112f0fdb, type: 3}
      propertyPath: m_LocalRotation.w
      value: 1
      objectReference: {fileID: 0}
    - target: {fileID: 8234146862788516067, guid: 5782b1e9e28c8487585b7162112f0fdb, type: 3}
      propertyPath: m_LocalRotation.x
      value: 0
      objectReference: {fileID: 0}
    - target: {fileID: 8234146862788516067, guid: 5782b1e9e28c8487585b7162112f0fdb, type: 3}
      propertyPath: m_LocalRotation.y
      value: 0
      objectReference: {fileID: 0}
    - target: {fileID: 8234146862788516067, guid: 5782b1e9e28c8487585b7162112f0fdb, type: 3}
      propertyPath: m_LocalRotation.z
      value: 0
      objectReference: {fileID: 0}
    - target: {fileID: 8234146862788516067, guid: 5782b1e9e28c8487585b7162112f0fdb, type: 3}
      propertyPath: m_LocalEulerAnglesHint.x
      value: 0
      objectReference: {fileID: 0}
    - target: {fileID: 8234146862788516067, guid: 5782b1e9e28c8487585b7162112f0fdb, type: 3}
      propertyPath: m_LocalEulerAnglesHint.y
      value: 0
      objectReference: {fileID: 0}
    - target: {fileID: 8234146862788516067, guid: 5782b1e9e28c8487585b7162112f0fdb, type: 3}
      propertyPath: m_LocalEulerAnglesHint.z
      value: 0
      objectReference: {fileID: 0}
    - target: {fileID: 8234146862788516079, guid: 5782b1e9e28c8487585b7162112f0fdb, type: 3}
      propertyPath: m_Name
      value: Archer
      objectReference: {fileID: 0}
    - target: {fileID: 8401211833869663697, guid: 5782b1e9e28c8487585b7162112f0fdb, type: 3}
      propertyPath: m_Materials.Array.data[0]
      value: 
      objectReference: {fileID: 2100000, guid: bfbe2e8b331e2cc42be1591f949c0e41, type: 2}
    - target: {fileID: 8927446113799092597, guid: 5782b1e9e28c8487585b7162112f0fdb, type: 3}
      propertyPath: chaseDistance
      value: 20
      objectReference: {fileID: 0}
    m_RemovedComponents: []
  m_SourcePrefab: {fileID: 100100000, guid: 5782b1e9e28c8487585b7162112f0fdb, type: 3}
